Análise paramétrica – CadernoFIP606
…
MiceliaDataframe = gsheet2tbl("https://docs.google.com/spreadsheets/d/1bq2N19DcZdtax2fQW9OHSGMR0X2__Z9T/edit?gid=959387827#gid=959387827")
MiceliaDataframe

# A tibble: 30 × 3
   especie   rep   tcm
   <chr>   <dbl> <dbl>
 1 Fasi        1  1.5 
 2 Fasi        2  1.59
 3 Fasi        3  1.52
 4 Fasi        4  1.52
 5 Fasi        5  1.6 
 6 Fasi        6  1.7 
 7 Faus        1  1.52
 8 Faus        2  1.25
 9 Faus        3  1.27
10 Faus        4  1.3 
# ℹ 20 more rows
…
