Modelos – CadernoFIP606
…
\[
\mathbf{y} = \mathbf{X}\boldsymbol{\beta} + \mathbf{Z}\boldsymbol{u} + \boldsymbol{\epsilon}, \quad \boldsymbol{u} \sim \mathcal{N}(\mathbf{0},\,\mathbf{G}), \quad \boldsymbol{\epsilon} \sim \mathcal{N}(\mathbf{0},\,\mathbf{R})
\]

\[
\begin{array}{ll}\hline\text{Símbolo} & \text{Definição} \\\hline\mathbf{y} & \text{vetor de observações (n×1), }E(\mathbf{y}) = \mathbf{X}\boldsymbol{\beta}\\\mathbf{X} & \text{matriz de projeto dos efeitos fixos (n×p)}\\\boldsymbol{\beta} & \text{parâmetros dos efeitos fixos (p×1), estimados via ML/REML}\\\mathbf{Z} & \text{matriz de projeto dos efeitos aleatórios (n×q)}\\\mathbf{u} & \text{efeitos aleatórios (q×1), }E(\mathbf{u})=0,\,\mathrm{Var}(\mathbf{u})=\mathbf{G}\\\boldsymbol{\epsilon} & \text{erros residuais (n×1), }E(\boldsymbol{\epsilon})=0,\,\mathrm{Var}(\boldsymbol{\epsilon})=\mathbf{R}\\\mathbf{G} & \text{matriz de covariância dos efeitos aleatórios (q×q)}\\\mathbf{R} & \text{matriz de covariância dos erros residuais (n×n)}\\\hline\end{array}
\]

Para exemplificar, consideremos o conjuto de dados abaixo em que foi observada a produtividade de cada híbrido sob dois diferentes métodos, em um experimento dirigido em estrutura DBC.

CornDf = gsheet2tbl("https://docs.google.com/spreadsheets/d/1bq2N19DcZdtax2fQW9OHSGMR0X2__Z9T/edit?gid=1345524759#gid=1345524759")
CornDf

# A tibble: 48 × 5
   hybrid   block method index yield
   <chr>    <dbl> <chr>  <dbl> <dbl>
 1 30F53 HX     1 pin     21.1 12920
 2 30F53 HX     2 pin     21.1  9870
 3 30F53 HX     3 pin     23.3  8920
 4 30F53 HX     4 pin     35.6 13120
 5 30F53 YH     1 pin     21.1 12060
 6 30F53 YH     2 pin     22.2  7860
 7 30F53 YH     3 pin     27.3  7410
 8 30F53 YH     4 pin     27.8 10300
 9 30K64        1 pin     20   11700
10 30K64        2 pin     20   10700
# ℹ 38 more rows
…
